This is BibTeX, Version 0.99d (TeX Live 2015/Debian)
Capacity: max_strings=35307, hash_size=35307, hash_prime=30011
The top-level auxiliary file: Summary_oct_16.aux
The style file: unsrt.bst
Database file #1: quellen_summary_milan_oct.bib
Warning--can't use both author and editor fields in Meyer2003
Warning--empty title in Freesurfer
Warning--empty journal in Freesurfer
Warning--empty year in Freesurfer
You've used 8 entries,
            1791 wiz_defined-function locations,
            500 strings with 4927 characters,
and the built_in function-call counts, 1962 in all, are:
= -- 179
> -- 63
< -- 3
+ -- 25
- -- 17
* -- 123
:= -- 296
add.period$ -- 22
call.type$ -- 8
change.case$ -- 6
chr.to.int$ -- 0
cite$ -- 12
duplicate$ -- 97
empty$ -- 191
format.name$ -- 17
if$ -- 454
int.to.chr$ -- 0
int.to.str$ -- 8
missing$ -- 9
newline$ -- 41
num.names$ -- 8
pop$ -- 24
preamble$ -- 1
purify$ -- 0
quote$ -- 0
skip$ -- 58
stack$ -- 0
substring$ -- 149
swap$ -- 33
text.length$ -- 3
text.prefix$ -- 0
top$ -- 0
type$ -- 0
warning$ -- 4
while$ -- 18
width$ -- 9
write$ -- 84
(There were 4 warnings)
